%YAML 1.1
%TAG !u! tag:unity3d.com,2011:
--- !u!1045 &1
EditorBuildSettings:
  m_ObjectHideFlags: 0
  serializedVersion: 2
  m_Scenes:
  - enabled: 1
    path: Assets/Scenes/SampleScene.unity
    guid: 9fc0d4010bbf28b4594072e72b8655ab
  m_configObjects:
    UnityEditor.XR.ARCore.ARCoreSettings: {fileID: 11400000, guid: 47ea171836ecbf347a903f7bb0f4d180, type: 2}
    UnityEditor.XR.ARKit.ARKitSettings: {fileID: 11400000, guid: e42055811dd3c3e42a75603135ff9a2c, type: 2}
    com.unity.xr.management.loader_settings: {fileID: 11400000, guid: 01c2043439ea51a4b881f00f1a2079ba, type: 2}
